{
  "project_info": {
    "project_number": "22641981015",
    "firebase_url": "https://todocode-c502b.firebaseio.com",
    "project_id": "todocode-c502b",
    "storage_bucket": "todocode-c502b.appspot.com"
  },
  "client": [
    {
      "client_info": {
        "mobilesdk_app_id": "1:22641981015:android:3aa0f3454e5a2e1f2ad512",
        "android_client_info": {
          "package_name": "com.codealchemytododemo"
        }
      },
      "oauth_client": [
        {
          "client_id": "22641981015-hv3t9af62kgoa2pcqd02h9koc2aakblr.apps.googleusercontent.com",
          "client_type": 3
        }
      ],
      "api_key": [
        {
          "current_key": "AIzaSyAIzfNkdz6O5lfP9OTSi54HIENxVbrfYdo"
        }
      ],
      "services": {
        "appinvite_service": {
          "other_platform_oauth_client": [
            {
              "client_id": "22641981015-hv3t9af62kgoa2pcqd02h9koc2aakblr.apps.googleusercontent.com",
              "client_type": 3
            }
          ]
        }
      }
    }
  ],
  "configuration_version": "1"
}